…
All processing was done in “data_preparation.R”. The tidy data were stored as “tibbles” (tbl_df, instead of R’s standard data.frame object) in RDS files. They can all be read directly into R.

library(tibble)
readRDS("data/example_data_table.tib")

More information in the “tidy data” format can be found in R for Data Science - Tidy data.

cell_line_metadata.tib

The information for each cell line from the Broad’s Cancer Cell Line Encyclopedia (CCLE).

cell_line_metadata <- readRDS(file.path("data", "cell_line_metadata.tib"))
cell_line_metadata
#> # A tibble: 1,676 x 9
#>    DepMap_ID CCLE_Name Aliases COSMIC_ID Sanger_ID Primary_Disease
#>    <chr>     <chr>     <chr>       <dbl>     <dbl> <chr>          
#>  1 ACH-0000… NIHOVCAR… NIH:OV…    905933      2201 Ovarian Cancer 
#>  2 ACH-0000… HL60_HAE… HL-60      905938        55 Leukemia       
#>  3 ACH-0000… CACO2_LA… CACO2;…        NA        NA Colon/Colorect…
#>  4 ACH-0000… HEL_HAEM… HEL        907053       783 Leukemia       
#>  5 ACH-0000… HEL9217_… HEL 92…        NA        NA Leukemia       
#>  6 ACH-0000… MONOMAC6… MONO-M…    908148      2167 Leukemia       
#>  7 ACH-0000… LS513_LA… LS513      907795       569 Colon/Colorect…
#>  8 ACH-0000… C2BBE1_L… C2BBe1     910700      2104 Colon/Colorect…
#>  9 ACH-0000… NCIH2077… NCI-H2…        NA        NA Lung Cancer    
#> 10 ACH-0000… 253J_URI… 253J           NA        NA Bladder Cancer 
#> # … with 1,666 more rows, and 3 more variables: Subtype_Disease <chr>,
#> #   Gender <chr>, Source <chr>
…
Primary_Disease - general disease of the cell line

Subtype_Disease - more specific disease of the cell line

Gender - sex (if known) of the patient

Source - source of the cell line

cell_line_mutations.tib

The mutation data for all cell lines in the Broad’s Cancer Cell Line Encyclopedia (CCLE).

cell_line_mutations <- readRDS(file.path("data", "cell_line_mutations.tib"))
cell_line_mutations
#> # A tibble: 1,243,145 x 35
#>    Hugo_Symbol Entrez_Gene_Id NCBI_Build Chromosome Start_position
#>    <chr>                <dbl>      <dbl> <chr>               <dbl>
#>  1 VPS13D               55187         37 1                12359347
#>  2 AADACL4             343066         37 1                12726308
#>  3 IFNLR1              163702         37 1                24484172
#>  4 TMEM57               55219         37 1                25785018
#>  5 ZSCAN20               7579         37 1                33954141
#>  6 POU3F1                5453         37 1                38512139
#>  7 MAST2                23139         37 1                46498028
#>  8 GBP4                115361         37 1                89657103
#>  9 VAV3                 10451         37 1               108247170
#> 10 NBPF20           100288142         37 1               148346689
#> # … with 1,243,135 more rows, and 30 more variables: End_position <dbl>,
#> #   Strand <chr>, Variant_Classification <chr>, Variant_Type <chr>,
#> #   Reference_Allele <chr>, Tumor_Seq_Allele1 <chr>, dbSNP_RS <chr>,
#> #   dbSNP_Val_Status <chr>, Genome_Change <chr>,
#> #   Annotation_Transcript <chr>, Tumor_Sample_Barcode <chr>,
#> #   cDNA_Change <chr>, Codon_Change <chr>, Protein_Change <chr>,
#> #   isDeleterious <lgl>, isTCGAhotspot <lgl>, TCGAhsCnt <dbl>,
#> #   isCOSMIChotspot <lgl>, COSMIChsCnt <dbl>, ExAC_AF <dbl>,
#> #   VA_WES_AC <chr>, CGA_WES_AC <chr>, SangerWES_AC <chr>,
…
Codon_Change - the reference and mutated codon

Protein_Change - amino acid change

isDeleterious, Variant_annotation, isTCGAhotspot, TCGAhsCnt, isCOSMIChotspot, COSMIChsCnt - functional annotation

ExAC_AF, VA_WES_AC, CGA_WES_AC, SangerWES_AC, SangerRecalibWES_AC, RNAseq_AC, HC_AC, RD_AC, WGS_AC - various accession IDs

cell_line_ras_anno.tib

The cell line information with the status of the RAS isoforms. If they are all wild-type, then the ras and allele columns will both be "WT". If a cell line has multiple RAS mutations, each one is a separate row.

cell_line_ras_anno <- readRDS(file.path("data", "cell_line_ras_anno.tib"))
cell_line_ras_anno
#> # A tibble: 1,745 x 12
#>    DepMap_ID CCLE_Name Aliases COSMIC_ID Sanger_ID Primary_Disease
#>    <chr>     <chr>     <chr>       <dbl>     <dbl> <chr>          
#>  1 ACH-0000… NIHOVCAR… NIH:OV…    905933      2201 Ovarian Cancer 
#>  2 ACH-0000… HL60_HAE… HL-60      905938        55 Leukemia       
#>  3 ACH-0000… CACO2_LA… CACO2;…        NA        NA Colon/Colorect…
#>  4 ACH-0000… HEL_HAEM… HEL        907053       783 Leukemia       
#>  5 ACH-0000… HEL9217_… HEL 92…        NA        NA Leukemia       
#>  6 ACH-0000… MONOMAC6… MONO-M…    908148      2167 Leukemia       
#>  7 ACH-0000… LS513_LA… LS513      907795       569 Colon/Colorect…
#>  8 ACH-0000… C2BBE1_L… C2BBe1     910700      2104 Colon/Colorect…
#>  9 ACH-0000… NCIH2077… NCI-H2…        NA        NA Lung Cancer    
#> 10 ACH-0000… 253J_URI… 253J           NA        NA Bladder Cancer 
#> # … with 1,735 more rows, and 6 more variables: Subtype_Disease <chr>,
#> #   Gender <chr>, Source <chr>, ras <chr>, allele <chr>, ras_allele <chr>

ras_muts_annotated.tib

The RAS mutant cell lines. This if the same data as in “cell_line_ras_anno.tib”, but only RAS mutants. The columns are in a different order, but hold the same data.

ras_muts_annotated <- readRDS(file.path("data", "ras_muts_annotated.tib"))
ras_muts_annotated
#> # A tibble: 420 x 12
#>    DepMap_ID ras   allele ras_allele CCLE_Name Aliases COSMIC_ID Sanger_ID
#>    <chr>     <chr> <chr>  <chr>      <chr>     <chr>       <dbl>     <dbl>
#>  1 ACH-0000… NRAS  Q61L   NRAS_Q61L  HL60_HAE… HL-60      905938        55
#>  2 ACH-0000… KRAS  G12D   KRAS_G12D  LS513_LA… LS513      907795       569
#>  3 ACH-0000… HRAS  G12V   HRAS_G12V  T24_URIN… T24        724812      1455
#>  4 ACH-0000… KRAS  G12V   KRAS_G12V  PATU8988… PA-TU-…        NA        NA
#>  5 ACH-0000… KRAS  G12V   KRAS_G12V  PATU8988… PA-TU-…   1240201      1242
#>  6 ACH-0000… NRAS  Q61K   NRAS_Q61K  CH157MN_… CH-157…        NA        NA
#>  7 ACH-0000… KRAS  Q61R   KRAS_Q61R  PANC0213… Panc 0…        NA        NA
#>  8 ACH-0000… NRAS  Q61L   NRAS_Q61L  PLB985_H… PLB985…        NA        NA
#>  9 ACH-0000… KRAS  G12D   KRAS_G12D  PANC0203… Panc 0…   1298475      1838
#> 10 ACH-0000… NRAS  G13D   NRAS_G13D  NCIH929_… NCI-H9…    724825      1230
#> # … with 410 more rows, and 4 more variables: Primary_Disease <chr>,
#> #   Subtype_Disease <chr>, Gender <chr>, Source <chr>
…
A specific selection of tissues can be loaded by passing a vector of the tissue names (from the file names). Alternatively, all tissues can be gathered by not passing anything.

load_rnai_synthetic_lethal(c("CERVIX", "BONE"))
#> # A tibble: 328,871 x 16
#>    gene  Entrez cell_line    score DepMap_ID Aliases COSMIC_ID Sanger_ID
#>    <chr> <chr>  <chr>        <dbl> <chr>     <chr>       <dbl>     <dbl>
#>  1 A1BG  1      143B_BONE  0.146   ACH-0010… <NA>           NA        NA
#>  2 NAT2  10     143B_BONE  0.103   ACH-0010… <NA>           NA        NA
#>  3 ADA   100    143B_BONE  0.169   ACH-0010… <NA>           NA        NA
#>  4 CDH2  1000   143B_BONE  0.0630  ACH-0010… <NA>           NA        NA
#>  5 AKT3  10000  143B_BONE -0.00808 ACH-0010… <NA>           NA        NA
#>  6 MED6  10001  143B_BONE -0.214   ACH-0010… <NA>           NA        NA
#>  7 NR2E3 10002  143B_BONE -0.154   ACH-0010… <NA>           NA        NA
#>  8 NAAL… 10003  143B_BONE  0.134   ACH-0010… <NA>           NA        NA
#>  9 DUXB  10003… 143B_BONE  0.139   ACH-0010… <NA>           NA        NA
#> 10 PDZK… 10003… 143B_BONE  0.0303  ACH-0010… <NA>           NA        NA
#> # … with 328,861 more rows, and 8 more variables: Primary_Disease <chr>,
#> #   Subtype_Disease <chr>, Gender <chr>, Source <chr>, ras <chr>,
#> #   allele <chr>, ras_allele <chr>, tissue <chr>

gene_effect.tib

This data is from the CRISPR-based screens. It is stored as a tibble of the CERES- and batch-adjusted essentiality scores for each gene targeted in each cell line. CERES adjusts the depletion score for the copy number of the gene [PMID: 29083409].

readRDS(file.path("data", "gene_effect.tib"))
#> # A tibble: 9,839,772 x 12
#>    DepMap_ID gene  CERES_score Entrez CCLE_Name Aliases COSMIC_ID Sanger_ID
#>    <chr>     <chr>       <dbl> <chr>  <chr>     <chr>       <dbl>     <dbl>
#>  1 ACH-0000… A1BG       0.135  1      HEL_HAEM… HEL        907053       783
#>  2 ACH-0000… A1BG      -0.212  1      HEL9217_… HEL 92…        NA        NA
#>  3 ACH-0000… A1BG       0.0433 1      LS513_LA… LS513      907795       569
#>  4 ACH-0000… A1BG       0.0705 1      C2BBE1_L… C2BBe1     910700      2104
#>  5 ACH-0000… A1BG       0.191  1      253J_URI… 253J           NA        NA
#>  6 ACH-0000… A1BG      -0.0104 1      HCC827_L… HCC827    1240146       354
#>  7 ACH-0000… A1BG       0.0210 1      ONCODG1_… ONCO-D…        NA        NA
#>  8 ACH-0000… A1BG       0.113  1      HS294T_S… Hs 294…        NA        NA
#>  9 ACH-0000… A1BG      -0.0742 1      NCIH1581… NCI-H1…    908471      1237
#> 10 ACH-0000… A1BG       0.133  1      SKBR3_BR… SK-BR-3        NA        NA
#> # … with 9,839,762 more rows, and 4 more variables: Primary_Disease <chr>,
#> #   Subtype_Disease <chr>, Gender <chr>, Source <chr>

gene_dependency.tib

This data is from the CRISPR-based screens. It is stored as a tibble with scores for the probability that knocking out the gene has a real depletion effect (corrected for batch effects).

readRDS(file.path("data", "gene_dependency.tib"))
#> # A tibble: 9,839,772 x 12
#>    DepMap_ID gene  dependency_score Entrez CCLE_Name Aliases COSMIC_ID
#>    <chr>     <chr>            <dbl> <chr>  <chr>     <chr>       <dbl>
#>  1 ACH-0000… A1BG           0.00247 1      HEL_HAEM… HEL        907053
#>  2 ACH-0000… A1BG           0.107   1      HEL9217_… HEL 92…        NA
#>  3 ACH-0000… A1BG           0.00800 1      LS513_LA… LS513      907795
#>  4 ACH-0000… A1BG           0.00548 1      C2BBE1_L… C2BBe1     910700
#>  5 ACH-0000… A1BG           0.00143 1      253J_URI… 253J           NA
#>  6 ACH-0000… A1BG           0.0162  1      HCC827_L… HCC827    1240146
#>  7 ACH-0000… A1BG           0.0134  1      ONCODG1_… ONCO-D…        NA
#>  8 ACH-0000… A1BG           0.00277 1      HS294T_S… Hs 294…        NA
#>  9 ACH-0000… A1BG           0.0424  1      NCIH1581… NCI-H1…    908471
#> 10 ACH-0000… A1BG           0.00293 1      SKBR3_BR… SK-BR-3        NA
#> # … with 9,839,762 more rows, and 5 more variables: Sanger_ID <dbl>,
#> #   Primary_Disease <chr>, Subtype_Disease <chr>, Gender <chr>,
#> #   Source <chr>

gene_essentiality.tib

A two column tibble of what the DepMap project deems essential or not essential in all cell lines.

readRDS(file.path("data", "gene_essentiality.tib"))
#> # A tibble: 993 x 2
#>    gene   is_essential
#>    <chr>  <lgl>       
#>  1 RPS11  TRUE        
#>  2 RPS17  TRUE        
#>  3 RPL4   TRUE        
#>  4 EIF3D  TRUE        
#>  5 RPL27  TRUE        
#>  6 RPL10A TRUE        
#>  7 RPS13  TRUE        
#>  8 U2AF1  TRUE        
#>  9 POLR2D TRUE        
#> 10 RPS15A TRUE        
#> # … with 983 more rows

copy_number/

The full tibble was too large to push to GitHub (and probably to warrant loading every time), so I separated it by primary disease and stored each as a tibble in “data/copy_number”. Again, I supply a function below to retrieve each one or all (default) tissues.

load_copy_number <- function(tissues = "all") {
    load_tissue_data(dir = "copy_number", tissues = tissues)
}

Here is an example.

load_copy_number(c("CERVIX", "BONE"))
#> # A tibble: 1,980,415 x 12
#>    DepMap_ID gene  copy_number CCLE_Name Aliases COSMIC_ID Sanger_ID
#>    <chr>     <chr>       <dbl> <chr>     <chr>       <dbl>     <dbl>
#>  1 ACH-0000… A1BG      0.0616  SKNMC_BO… SK-N-MC        NA        NA
#>  2 ACH-0004… A1BG      0.00266 SW1353_B… SW 1353        NA        NA
#>  3 ACH-0000… A1BG     -0.198   A673_BONE A-673      684052       660
#>  4 ACH-0002… A1BG     -0.0141  CADOES1_… CADO-E…    753539      1523
#>  5 ACH-0010… A1BG     -0.0104  CBAGPN_B… <NA>           NA        NA
#>  6 ACH-0010… A1BG      0.286   CHLA10_B… <NA>           NA        NA
#>  7 ACH-0010… A1BG     -0.0433  CHLA218_… <NA>           NA        NA
#>  8 ACH-0012… A1BG      0.0226  CHLA258_… <NA>           NA        NA
#>  9 ACH-0010… A1BG     -0.0251  CHLA32_B… <NA>           NA        NA
#> 10 ACH-0010… A1BG      0.510   CHLA57_B… <NA>           NA        NA
#> # … with 1,980,405 more rows, and 5 more variables: Primary_Disease <chr>,
#> #   Subtype_Disease <chr>, Gender <chr>, Source <chr>, tissue <chr>
…
